{
  "iisSettings": {
    "windowsAuthentication": false,
    "anonymousAuthentication": true,
    "iisExpress": {
      "applicationUrl": "https://localhost:44356",
      "sslPort": 44356
    }
  },
  "profiles": {
    "IIS Express": {
      "commandName": "IISExpress",
      "launchBrowser": true,
      "environmentVariables": {
        "ASPNETCORE_ENVIRONMENT": "Development"
      }
    },
    "FRTTMO.RewardPointApplication.DemoApp.Development": {
      "commandName": "Project",
      "launchBrowser": true,
      "environmentVariables": {
        "ASPNETCORE_ENVIRONMENT": "Development"
      },
      "applicationUrl": "https://localhost:44356"
    },
    "FRTTMO.RewardPointApplication.DemoApp.CI": {
      "commandName": "Project",
      "launchBrowser": true,
      "environmentVariables": {
        "ASPNETCORE_ENVIRONMENT": "CI"
      },
      "applicationUrl": "https://localhost:44356"
    },
    "FRTTMO.RewardPointApplication.DemoApp.UAT": {
      "commandName": "Project",
      "launchBrowser": true,
      "environmentVariables": {
        "ASPNETCORE_ENVIRONMENT": "UAT"
      },
      "applicationUrl": "https://localhost:44356"
    }
  }
}