﻿{
  "culture": "en",
  "texts": {
    "FRTTMO.RewardPointApplication:00001": "Có lỗi xảy ra! {0}",
    "FRTTMO.RewardPointApplication:00002": "Dữ liệu không hợp lệ! {0}",
    "FRTTMO.RewardPointApplication:00003": "Dữ liệu không tồn tại! {0}",
    "FRTTMO.RewardPointApplication:00004": "Lỗi ElasticSearch! {0}"
  }
}